…
``` r
nycCauses_Deaths %>% 
      group_by(year, Race.Ethnicity,Leading.Cause) %>% 
      filter(year == 2019 & Sex == "Female" & Race.Ethnicity == 'Other Race/ Ethnicity') %>%
      summarise(average = mean(Deaths)) %>%
      arrange(desc(average)) %>%
      select(Race.Ethnicity, Leading.Cause, average) 
```

    ## `summarise()` has grouped output by 'year', 'Race.Ethnicity'. You can override using the `.groups` argument.
    ## Adding missing grouping variables: `year`

    ## # A tibble: 23 x 4
    ## # Groups:   year, Race.Ethnicity [1]
    ##     year Race.Ethnicity        Leading.Cause                                                    average
    ##    <int> <fct>                 <fct>                                                              <dbl>
    ##  1  2019 Other Race/ Ethnicity Diseases of Heart (I00-I09, I11, I13, I20-I51)                      34.5
    ##  2  2019 Other Race/ Ethnicity Malignant Neoplasms (Cancer: C00-C97)                               26  
    ##  3  2019 Other Race/ Ethnicity All Other Causes                                                    22.5
    ##  4  2019 Other Race/ Ethnicity Diabetes Mellitus (E10-E14)                                          7.5
    ##  5  2019 Other Race/ Ethnicity Cerebrovascular Disease (Stroke: I60-I69)                            5.5
    ##  6  2019 Other Race/ Ethnicity Essential Hypertension and Renal Diseases (I10, I12)                 3.5
    ##  7  2019 Other Race/ Ethnicity Influenza (Flu) and Pneumonia (J09-J18)                              3.5
    ##  8  2019 Other Race/ Ethnicity Alzheimer's Disease (G30)                                            3  
    ##  9  2019 Other Race/ Ethnicity Assault (Homicide: U01-U02, Y87.1, X85-Y09)                          3  
    ## 10  2019 Other Race/ Ethnicity Accidents Except Drug Poisoning (V01-X39, X43, X45-X59, Y85-Y86)     2  
    ## # ... with 13 more rows
…
